{
    "id": 5249594572,
    "didRadiantWin": false,
    "durationSeconds": 1785,
    "startDateTime": 1582062200,
    "clusterId": 134,
    "firstBloodTime": 0,
    "lobbyType": 7,
    "numHumanPlayers": 10,
    "gameMode": 22,
    "replaySalt": 1230848753,
    "isStats": true,
    "gameVersionId": 125,
    "regionId": 3,
    "sequenceNum": 4404758405,
    "rank": 65,
    "bracket": 6,
    "endDateTime": 1582063985,
    "players": [
        {
            "matchId": 5249594572,
            "playerSlot": 0,
            "heroId": 8,
            "steamId": 126255451,
            "isRadiant": true,
            "numKills": 5,
            "numDeaths": 7,
            "numAssists": 4,
            "leaverStatus": 0,
            "numLastHits": 173,
            "numDenies": 20,
            "goldPerMinute": 389,
            "experiencePerMinute": 445,
            "level": 17,
            "gold": 68,
            "goldSpent": 11120,
            "heroDamage": 9859,
            "towerDamage": 611,
            "partyId": 0,
            "heroHealing": 506,
            "isVictory": false,
            "networth": 10248,
            "heroAverage": [
                {
                    "time": 10,
                    "matchCount": 0,
                    "kills": 1.7,
                    "deaths": 0.9,
                    "assists": 1.0,
                    "goldEarned": 226.6,
                    "xp": 286.8,
                    "cs": 54.0,
                    "heroDamage": 2922.0,
                    "towerDamage": 24.0,
                    "healingSelf": 606.0,
                    "healingAllies": 79.0,
                    "teamKills": 6.0,
                    "kdaAverage": 2.7,
                    "kcAverage": 0.45
                },
                {
                    "time": 29,
                    "matchCount": 0,
                    "kills": 6.2,
                    "deaths": 3.6,
                    "assists": 6.0,
                    "goldEarned": 381.0,
                    "xp": 578.6,
                    "cs": 232.0,
                    "heroDamage": 14509.1,
                    "towerDamage": 2510.9,
                    "healingSelf": 3718.8,
                    "healingAllies": 2942.3,
                    "teamKills": 23.8,
                    "kdaAverage": 3.39,
                    "kcAverage": 0.51
                }
            ],
            "steamAccount": {
                "id": 126255451,
                "steamId": 126255451,
                "countryCode": "RU",
                "communityVisibleState": 3,
                "name": "~ஜ۩ SLTV.HeNeSsY ۩ஜ~",
                "soloRank": 2268,
                "partyRank": 2183,
                "isAnonymous": false,
                "isStratzAnonymous": false,
                "seasonRankCore": 61,
                "smurfFlag": 0,
                "smurfCheckDate": 1581799080,
                "lastMatchDateTime": 1582068420,
                "lastMatchRegionId": 8,
                "seasonRankSupport": 52,
                "seasonRank": 61
            }
        },
        {
            "matchId": 5249594572,
            "playerSlot": 1,
            "heroId": 30,
            "steamId": 208797451,
            "isRadiant": true,
            "numKills": 2,
            "numDeaths": 9,
            "numAssists": 4,
            "leaverStatus": 0,
            "numLastHits": 13,
            "numDenies": 1,
            "goldPerMinute": 160,
            "experiencePerMinute": 176,
            "level": 9,
            "gold": 252,
            "goldSpent": 5075,
            "heroDamage": 7428,
            "towerDamage": 0,
            "partyId": 0,
            "item0Id": 36,
            "item1Id": 218,
            "item2Id": 244,
            "item3Id": 73,
            "item4Id": 29,
            "item5Id": 94,
            "heroHealing": 1309,
            "abilities": [
                {
                    "abilityId": 5138,
                    "time": 190,
                    "level": 0
                },
                {
                    "abilityId": 5139,
                    "time": 422,
                    "level": 0
                },
                {
                    "abilityId": 5140,
                    "time": 606,
                    "level": 0
                },
                {
                    "abilityId": 5138,
                    "time": 775,
                    "level": 1
                },
                {
                    "abilityId": 5138,
                    "time": 949,
                    "level": 2
                },
                {
                    "abilityId": 5141,
                    "time": 1112,
                    "level": 0
                },
                {
                    "abilityId": 5138,
                    "time": 1356,
                    "level": 3
                },
                {
                    "abilityId": 5140,
                    "time": 1503,
                    "level": 1
                },
                {
                    "abilityId": 5140,
                    "time": 1530,
                    "level": 2
                }
            ],
            "isVictory": false,
            "networth": 2712,
            "neutral0Id": 290,
            "heroAverage": [],
            "steamAccount": {
                "id": 208797451,
                "steamId": 208797451,
                "profileUri": "https://steamcommunity.com/profiles/76561198169063179/",
                "realName": "",
                "countryCode": "",
                "stateCode": "",
                "name": "Eagles Of The Death",
                "avatar": "5c/5c140f515a7d7288e97d396747a3b4efa3395104_full.jpg",
                "isAnonymous": true,
                "isStratzAnonymous": false
            }
        },
        {
            "matchId": 5249594572,
            "playerSlot": 2,
            "heroId": 100,
            "steamId": 1047156538,
            "isRadiant": true,
            "numKills": 4,
            "numDeaths": 9,
            "numAssists": 6,
            "leaverStatus": 0,
            "numLastHits": 33,
            "numDenies": 7,
            "goldPerMinute": 226,
            "experiencePerMinute": 311,
            "level": 14,
            "gold": 214,
            "goldSpent": 6530,
            "heroDamage": 8279,
            "towerDamage": 0,
            "partyId": 0,
            "item0Id": 38,
            "item1Id": 181,
            "item3Id": 40,
            "item4Id": 63,
            "item5Id": 267,
            "heroHealing": 0,
            "abilities": [
                {
                    "abilityId": 5565,
                    "time": 265,
                    "level": 0
                },
                {
                    "abilityId": 7322,
                    "time": 389,
                    "level": 0
                },
                {
                    "abilityId": 7322,
                    "time": 503,
                    "level": 1
                },
                {
                    "abilityId": 5566,
                    "time": 665,
                    "level": 0
                },
                {
                    "abilityId": 7322,
                    "time": 805,
                    "level": 2
                },
                {
                    "abilityId": 5568,
                    "time": 885,
                    "level": 0
                },
                {
                    "abilityId": 7322,
                    "time": 914,
                    "level": 3
                },
                {
                    "abilityId": 5565,
                    "time": 1019,
                    "level": 1
                },
                {
                    "abilityId": 5565,
                    "time": 1093,
                    "level": 2
                },
                {
                    "abilityId": 414,
                    "time": 1212,
                    "level": 0
                },
                {
                    "abilityId": 5565,
                    "time": 1380,
                    "level": 3
                },
                {
                    "abilityId": 5568,
                    "time": 1442,
                    "level": 1
                },
                {
                    "abilityId": 5566,
                    "time": 1476,
                    "level": 1
                },
                {
                    "abilityId": 5566,
                    "time": 1983,
                    "level": 2
                }
            ],
            "isVictory": false,
            "networth": 5019,
            "heroAverage": [
                {
                    "time": 10,
                    "matchCount": 0,
                    "kills": 1.6,
                    "deaths": 1.5,
                    "assists": 2.9,
                    "goldEarned": 119.2,
                    "xp": 192.1,
                    "cs": 17.0,
                    "heroDamage": 2653.0,
                    "towerDamage": 3.0,
                    "healingSelf": 251.0,
                    "healingAllies": 78.0,
                    "teamKills": 7.0,
                    "kdaAverage": 3.0,
                    "kcAverage": 0.64
                },
                {
                    "time": 29,
                    "matchCount": 0,
                    "kills": 4.8,
                    "deaths": 6.5,
                    "assists": 11.0,
                    "goldEarned": 188.6,
                    "xp": 388.1,
                    "cs": 68.4,
                    "heroDamage": 11242.5,
                    "towerDamage": 404.6,
                    "healingSelf": 363.0,
                    "healingAllies": 86.3,
                    "teamKills": 26.8,
                    "kdaAverage": 2.43,
                    "kcAverage": 0.59
                }
            ],
            "steamAccount": {
                "id": 1047156538,
                "steamId": 1047156538,
                "lastActiveTime": "2020-02-19T01:24:00",
                "profileUri": "https://steamcommunity.com/profiles/76561199007422266/",
                "timeCreated": 1575300598,
                "cityId": 0,
                "communityVisibleState": 3,
                "name": "Я НА МЕЙНЕ НАХУ",
                "avatar": "75/75c375f567d70fd812314a513645482b278eead7_full.jpg",
                "primaryClanId": 103582791429521408,
                "isAnonymous": false,
                "isStratzAnonymous": false,
                "seasonRankCore": 74,
                "lastMatchDateTime": 1582075440,
                "lastMatchRegionId": 3,
                "seasonRank": 74
            }
        },
        {
            "matchId": 5249594572,
            "playerSlot": 3,
            "heroId": 21,
            "steamId": 982671869,
            "isRadiant": true,
            "numKills": 2,
            "numDeaths": 10,
            "numAssists": 2,
            "leaverStatus": 0,
            "numLastHits": 103,
            "numDenies": 21,
            "goldPerMinute": 278,
            "experiencePerMinute": 320,
            "level": 14,
            "gold": 26,
            "goldSpent": 6810,
            "heroDamage": 9948,
            "towerDamage": 0,
            "partyId": 0,
            "item0Id": 77,
            "item1Id": 20,
            "item2Id": 7,
            "item3Id": 50,
            "item4Id": 102,
            "item5Id": 36,
            "backpack2Id": 38,
            "heroHealing": 0,
            "abilities": [
                {
                    "abilityId": 5132,
                    "time": 275,
                    "level": 0
                },
                {
                    "abilityId": 5131,
                    "time": 399,
                    "level": 0
                },
                {
                    "abilityId": 5132,
                    "time": 481,
                    "level": 1
                },
                {
                    "abilityId": 5131,
                    "time": 613,
                    "level": 1
                },
                {
                    "abilityId": 5133,
                    "time": 755,
                    "level": 0
                },
                {
                    "abilityId": 5132,
                    "time": 758,
                    "level": 2
                },
                {
                    "abilityId": 5132,
                    "time": 873,
                    "level": 3
                },
                {
                    "abilityId": 5131,
                    "time": 964,
                    "level": 2
                },
                {
                    "abilityId": 5131,
                    "time": 1138,
                    "level": 3
                },
                {
                    "abilityId": 5961,
                    "time": 1306,
                    "level": 0
                },
                {
                    "abilityId": 5130,
                    "time": 1379,
                    "level": 0
                },
                {
                    "abilityId": 5130,
                    "time": 1491,
                    "level": 1
                },
                {
                    "abilityId": 5133,
                    "time": 1588,
                    "level": 1
                },
                {
                    "abilityId": 5130,
                    "time": 1910,
                    "level": 2
                }
            ],
            "isVictory": false,
            "networth": 6021,
            "neutral0Id": 357,
            "heroAverage": [
                {
                    "time": 10,
                    "matchCount": 0,
                    "kills": 1.5,
                    "deaths": 1.2,
                    "assists": 1.2,
                    "goldEarned": 164.8,
                    "xp": 261.8,
                    "cs": 35.0,
                    "heroDamage": 3772.0,
                    "towerDamage": 19.0,
                    "healingSelf": 233.0,
                    "healingAllies": 14.0,
                    "teamKills": 6.0,
                    "kdaAverage": 2.25,
                    "kcAverage": 0.45
                },
                {
                    "time": 29,
                    "matchCount": 0,
                    "kills": 6.2,
                    "deaths": 4.8,
                    "assists": 8.0,
                    "goldEarned": 278.5,
                    "xp": 479.9,
                    "cs": 139.8,
                    "heroDamage": 15365.9,
                    "towerDamage": 1160.2,
                    "healingSelf": 434.4,
                    "healingAllies": 26.8,
                    "teamKills": 26.8,
                    "kdaAverage": 2.96,
                    "kcAverage": 0.53
                }
            ],
            "steamAccount": {
                "id": 982671869,
                "steamId": 982671869,
                "lastActiveTime": "2020-02-18T23:27:00",
                "profileUri": "https://steamcommunity.com/id/alships11/",
                "realName": "АВАХ",
                "timeCreated": 1553545553,
                "countryCode": "AW",
                "cityId": 0,
                "communityVisibleState": 3,
                "name": "КОРЕШ АШАНА",
                "avatar": "62/628c1aac8b1df6c80716b3fffd9a397d6b4c367a_full.jpg",
                "primaryClanId": 103582791429521408,
                "isAnonymous": false,
                "isStratzAnonymous": false,
                "seasonRankCore": 71,
                "smurfFlag": 7,
                "smurfCheckDate": 1578889380,
                "lastMatchDateTime": 1582068420,
                "lastMatchRegionId": 8,
                "seasonRankSupport": 62,
                "seasonRank": 71
            }
        },
        {
            "matchId": 5249594572,
            "playerSlot": 4,
            "heroId": 14,
            "steamId": 305746769,
            "isRadiant": true,
            "numKills": 2,
            "numDeaths": 9,
            "numAssists": 3,
            "leaverStatus": 0,
            "numLastHits": 202,
            "numDenies": 21,
            "goldPerMinute": 367,
            "experiencePerMinute": 460,
            "level": 17,
            "gold": 26,
            "goldSpent": 10260,
            "heroDamage": 7818,
            "towerDamage": 0,
            "partyId": 0,
            "item0Id": 50,
            "item1Id": 131,
            "item2Id": 73,
            "item3Id": 125,
            "item4Id": 1,
            "item5Id": 86,
            "backpack0Id": 73,
            "heroHealing": 0,
            "abilities": [
                {
                    "abilityId": 5074,
                    "time": 253,
                    "level": 0
                },
                {
                    "abilityId": 5076,
                    "time": 329,
                    "level": 0
                },
                {
                    "abilityId": 5076,
                    "time": 386,
                    "level": 1
                },
                {
                    "abilityId": 5075,
                    "time": 437,
                    "level": 0
                },
                {
                    "abilityId": 5076,
                    "time": 530,
                    "level": 2
                },
                {
                    "abilityId": 5077,
                    "time": 636,
                    "level": 0
                },
                {
                    "abilityId": 5076,
                    "time": 739,
                    "level": 3
                },
                {
                    "abilityId": 5074,
                    "time": 795,
                    "level": 1
                },
                {
                    "abilityId": 5074,
                    "time": 881,
                    "level": 2
                },
                {
                    "abilityId": 6245,
                    "time": 941,
                    "level": 0
                },
                {
                    "abilityId": 5074,
                    "time": 1061,
                    "level": 3
                },
                {
                    "abilityId": 5077,
                    "time": 1131,
                    "level": 1
                },
                {
                    "abilityId": 5075,
                    "time": 1217,
                    "level": 1
                },
                {
                    "abilityId": 5075,
                    "time": 1348,
                    "level": 2
                },
                {
                    "abilityId": 7142,
                    "time": 1477,
                    "level": 0
                },
                {
                    "abilityId": 5075,
                    "time": 1562,
                    "level": 3
                }
            ],
            "isVictory": false,
            "networth": 9126,
            "neutral0Id": 304,
            "heroAverage": [
                {
                    "time": 10,
                    "matchCount": 0,
                    "kills": 1.7,
                    "deaths": 1.9,
                    "assists": 2.2,
                    "goldEarned": 124.9,
                    "xp": 201.8,
                    "cs": 18.0,
                    "heroDamage": 2620.0,
                    "towerDamage": 2.0,
                    "healingSelf": 279.0,
                    "healingAllies": 26.0,
                    "teamKills": 7.0,
                    "kdaAverage": 2.05,
                    "kcAverage": 0.56
                },
                {
                    "time": 29,
                    "matchCount": 0,
                    "kills": 5.4,
                    "deaths": 7.1,
                    "assists": 9.8,
                    "goldEarned": 205.3,
                    "xp": 404.2,
                    "cs": 80.3,
                    "heroDamage": 12221.3,
                    "towerDamage": 348.1,
                    "healingSelf": 2656.7,
                    "healingAllies": 38.7,
                    "teamKills": 26.8,
                    "kdaAverage": 2.14,
                    "kcAverage": 0.57
                }
            ],
            "steamAccount": {
                "id": 305746769,
                "steamId": 305746769,
                "lastActiveTime": "2020-02-18T23:27:00",
                "profileUri": "https://steamcommunity.com/id/viilovewp/",
                "timeCreated": 1449491491,
                "countryCode": "DE",
                "stateCode": "04 ",
                "cityId": 13004,
                "communityVisibleState": 3,
                "name": "плотность - наше всё",
                "avatar": "9a/9aa1490e0ef84dcd26ddea1788d7ca46b146a9de_full.jpg",
                "primaryClanId": 103582791461222465,
                "soloRank": 4043,
                "partyRank": 3805,
                "isDotaPlusSubscriber": false,
                "dotaPlusOriginalStartDate": 1533710003,
                "isAnonymous": false,
                "isStratzAnonymous": false,
                "seasonRankCore": 72,
                "smurfFlag": 0,
                "smurfCheckDate": 1581074100,
                "lastMatchDateTime": 1582068420,
                "lastMatchRegionId": 8,
                "seasonRankSupport": 73,
                "seasonRank": 73
            }
        },
        {
            "matchId": 5249594572,
            "playerSlot": 128,
            "heroId": 93,
            "steamId": 185992932,
            "isRadiant": false,
            "numKills": 20,
            "numDeaths": 1,
            "numAssists": 12,
            "leaverStatus": 0,
            "numLastHits": 225,
            "numDenies": 15,
            "goldPerMinute": 664,
            "experiencePerMinute": 790,
            "level": 23,
            "gold": 2301,
            "goldSpent": 18345,
            "heroDamage": 33154,
            "towerDamage": 7263,
            "partyId": 1,
            "lane": 1,
            "role": 0,
            "item0Id": 63,
            "item1Id": 174,
            "item2Id": 36,
            "item3Id": 135,
            "item4Id": 108,
            "item5Id": 168,
            "heroHealing": 0,
            "abilities": [
                {
                    "abilityId": 5496,
                    "time": 217,
                    "level": 0
                },
                {
                    "abilityId": 5495,
                    "time": 357,
                    "level": 0
                },
                {
                    "abilityId": 5494,
                    "time": 496,
                    "level": 0
                },
                {
                    "abilityId": 5494,
                    "time": 597,
                    "level": 1
                },
                {
                    "abilityId": 5494,
                    "time": 686,
                    "level": 2
                },
                {
                    "abilityId": 5497,
                    "time": 774,
                    "level": 0
                },
                {
                    "abilityId": 5494,
                    "time": 809,
                    "level": 3
                },
                {
                    "abilityId": 5496,
                    "time": 890,
                    "level": 1
                },
                {
                    "abilityId": 5496,
                    "time": 989,
                    "level": 2
                },
                {
                    "abilityId": 5496,
                    "time": 1149,
                    "level": 3
                },
                {
                    "abilityId": 6137,
                    "time": 1220,
                    "level": 0
                },
                {
                    "abilityId": 5497,
                    "time": 1241,
                    "level": 1
                },
                {
                    "abilityId": 5495,
                    "time": 1319,
                    "level": 1
                },
                {
                    "abilityId": 5495,
                    "time": 1377,
                    "level": 2
                },
                {
                    "abilityId": 6016,
                    "time": 1514,
                    "level": 0
                },
                {
                    "abilityId": 5495,
                    "time": 1603,
                    "level": 3
                },
                {
                    "abilityId": 5497,
                    "time": 1712,
                    "level": 2
                },
                {
                    "abilityId": 6892,
                    "time": 1892,
                    "level": 0
                }
            ],
            "isVictory": true,
            "networth": 19176,
            "neutral0Id": 331,
            "heroAverage": [],
            "steamAccount": {
                "id": 185992932,
                "steamId": 185992932,
                "profileUri": "https://steamcommunity.com/profiles/76561198146258660/",
                "realName": "",
                "countryCode": "",
                "stateCode": "",
                "name": "tu roflish?(",
                "avatar": "09/09b1482ff7fd3455060bbf9c9358a908fd3f46df_full.jpg",
                "isAnonymous": true,
                "isStratzAnonymous": false
            }
        },
        {
            "matchId": 5249594572,
            "playerSlot": 129,
            "heroId": 28,
            "steamId": 126330038,
            "isRadiant": false,
            "numKills": 6,
            "numDeaths": 3,
            "numAssists": 16,
            "leaverStatus": 0,
            "numLastHits": 106,
            "numDenies": 24,
            "goldPerMinute": 406,
            "experiencePerMinute": 546,
            "level": 19,
            "gold": 2848,
            "goldSpent": 9730,
            "heroDamage": 12303,
            "towerDamage": 1440,
            "partyId": 1,
            "lane": 3,
            "role": 0,
            "item0Id": 36,
            "item1Id": 50,
            "item2Id": 73,
            "item3Id": 1,
            "item4Id": 116,
            "heroHealing": 0,
            "abilities": [
                {
                    "abilityId": 5116,
                    "time": 261,
                    "level": 0
                },
                {
                    "abilityId": 5115,
                    "time": 367,
                    "level": 0
                },
                {
                    "abilityId": 5114,
                    "time": 483,
                    "level": 0
                },
                {
                    "abilityId": 5116,
                    "time": 573,
                    "level": 1
                },
                {
                    "abilityId": 5116,
                    "time": 726,
                    "level": 2
                },
                {
                    "abilityId": 5117,
                    "time": 806,
                    "level": 0
                },
                {
                    "abilityId": 5116,
                    "time": 938,
                    "level": 3
                },
                {
                    "abilityId": 5114,
                    "time": 1020,
                    "level": 1
                },
                {
                    "abilityId": 5114,
                    "time": 1155,
                    "level": 2
                },
                {
                    "abilityId": 6009,
                    "time": 1280,
                    "level": 0
                },
                {
                    "abilityId": 5115,
                    "time": 1392,
                    "level": 1
                },
                {
                    "abilityId": 5117,
                    "time": 1464,
                    "level": 1
                },
                {
                    "abilityId": 5114,
                    "time": 1526,
                    "level": 3
                },
                {
                    "abilityId": 5115,
                    "time": 1602,
                    "level": 2
                },
                {
                    "abilityId": 6889,
                    "time": 1665,
                    "level": 0
                },
                {
                    "abilityId": 5115,
                    "time": 1732,
                    "level": 3
                },
                {
                    "abilityId": 5117,
                    "time": 1955,
                    "level": 2
                }
            ],
            "isVictory": true,
            "networth": 11638,
            "neutral0Id": 299,
            "heroAverage": [
                {
                    "time": 10,
                    "matchCount": 0,
                    "kills": 1.5,
                    "deaths": 1.3,
                    "assists": 1.4,
                    "goldEarned": 181.7,
                    "xp": 249.7,
                    "cs": 38.0,
                    "heroDamage": 2988.0,
                    "towerDamage": 18.0,
                    "healingSelf": 464.0,
                    "healingAllies": 7.0,
                    "teamKills": 6.0,
                    "kdaAverage": 2.23,
                    "kcAverage": 0.48
                },
                {
                    "time": 29,
                    "matchCount": 0,
                    "kills": 5.1,
                    "deaths": 5.4,
                    "assists": 9.5,
                    "goldEarned": 250.7,
                    "xp": 449.3,
                    "cs": 125.0,
                    "heroDamage": 11293.1,
                    "towerDamage": 699.1,
                    "healingSelf": 714.0,
                    "healingAllies": 14.9,
                    "teamKills": 26.8,
                    "kdaAverage": 2.7,
                    "kcAverage": 0.54
                }
            ],
            "steamAccount": {
                "id": 126330038,
                "steamId": 126330038,
                "lastActiveTime": "2020-02-18T22:13:00",
                "profileUri": "https://steamcommunity.com/id/Twittery/",
                "cityId": 0,
                "communityVisibleState": 2,
                "name": "ScytheMan",
                "avatar": "89/89b3f115bb78bf88e748c5f87504f44ee59a72e1_full.jpg",
                "primaryClanId": 0,
                "soloRank": 2685,
                "partyRank": 2593,
                "isAnonymous": false,
                "isStratzAnonymous": false,
                "seasonRankCore": 63,
                "smurfFlag": 0,
                "smurfCheckDate": 1581572100,
                "lastMatchDateTime": 1582063980,
                "lastMatchRegionId": 3,
                "seasonRankSupport": 61,
                "seasonRank": 63
            }
        },
        {
            "matchId": 5249594572,
            "playerSlot": 130,
            "heroId": 101,
            "steamId": 86139356,
            "isRadiant": false,
            "numKills": 9,
            "numDeaths": 5,
            "numAssists": 15,
            "leaverStatus": 0,
            "numLastHits": 48,
            "numDenies": 7,
            "goldPerMinute": 368,
            "experiencePerMinute": 456,
            "level": 17,
            "gold": 835,
            "goldSpent": 10415,
            "heroDamage": 17881,
            "towerDamage": 1145,
            "partyId": 1,
            "role": 1,
            "item0Id": 77,
            "item1Id": 215,
            "item2Id": 36,
            "item3Id": 206,
            "item4Id": 37,
            "item5Id": 48,
            "heroHealing": 160,
            "abilities": [
                {
                    "abilityId": 5582,
                    "time": 219,
                    "level": 0
                },
                {
                    "abilityId": 5581,
                    "time": 394,
                    "level": 0
                },
                {
                    "abilityId": 5581,
                    "time": 520,
                    "level": 1
                },
                {
                    "abilityId": 5583,
                    "time": 665,
                    "level": 0
                },
                {
                    "abilityId": 5581,
                    "time": 873,
                    "level": 2
                },
                {
                    "abilityId": 5584,
                    "time": 943,
                    "level": 0
                },
                {
                    "abilityId": 5581,
                    "time": 1153,
                    "level": 3
                },
                {
                    "abilityId": 5583,
                    "time": 1279,
                    "level": 1
                },
                {
                    "abilityId": 5582,
                    "time": 1393,
                    "level": 1
                },
                {
                    "abilityId": 5918,
                    "time": 1450,
                    "level": 0
                },
                {
                    "abilityId": 5583,
                    "time": 1513,
                    "level": 2
                },
                {
                    "abilityId": 5584,
                    "time": 1605,
                    "level": 1
                },
                {
                    "abilityId": 5583,
                    "time": 1813,
                    "level": 3
                },
                {
                    "abilityId": 5582,
                    "time": 1817,
                    "level": 2
                },
                {
                    "abilityId": 6884,
                    "time": 1872,
                    "level": 0
                },
                {
                    "abilityId": 5582,
                    "time": 1993,
                    "level": 3
                }
            ],
            "isVictory": true,
            "networth": 9995,
            "neutral0Id": 212,
            "heroAverage": [],
            "steamAccount": {
                "id": 86139356,
                "steamId": 86139356,
                "profileUri": "https://steamcommunity.com/id/27026/",
                "realName": "",
                "countryCode": "",
                "stateCode": "",
                "name": "SHE",
                "avatar": "8c/8c5f26eb1cd133878203270f9ade8f5702731b7c_full.jpg",
                "isAnonymous": true,
                "isStratzAnonymous": false
            }
        },
        {
            "matchId": 5249594572,
            "playerSlot": 131,
            "heroId": 31,
            "steamId": 178339909,
            "isRadiant": false,
            "numKills": 2,
            "numDeaths": 4,
            "numAssists": 21,
            "leaverStatus": 0,
            "numLastHits": 32,
            "numDenies": 6,
            "goldPerMinute": 317,
            "experiencePerMinute": 492,
            "level": 18,
            "gold": 3839,
            "goldSpent": 6055,
            "heroDamage": 8059,
            "towerDamage": 1198,
            "partyId": 1,
            "lane": 1,
            "role": 2,
            "item0Id": 254,
            "item3Id": 180,
            "item5Id": 36,
            "heroHealing": 400,
            "abilities": [
                {
                    "abilityId": 5134,
                    "time": 218,
                    "level": 0
                },
                {
                    "abilityId": 5136,
                    "time": 357,
                    "level": 0
                },
                {
                    "abilityId": 5134,
                    "time": 479,
                    "level": 1
                },
                {
                    "abilityId": 7325,
                    "time": 623,
                    "level": 0
                },
                {
                    "abilityId": 5134,
                    "time": 749,
                    "level": 2
                },
                {
                    "abilityId": 5137,
                    "time": 891,
                    "level": 0
                },
                {
                    "abilityId": 5134,
                    "time": 943,
                    "level": 3
                },
                {
                    "abilityId": 5136,
                    "time": 1285,
                    "level": 1
                },
                {
                    "abilityId": 5136,
                    "time": 1414,
                    "level": 2
                },
                {
                    "abilityId": 5918,
                    "time": 1488,
                    "level": 0
                },
                {
                    "abilityId": 5136,
                    "time": 1497,
                    "level": 3
                },
                {
                    "abilityId": 5137,
                    "time": 1591,
                    "level": 1
                },
                {
                    "abilityId": 7325,
                    "time": 1711,
                    "level": 1
                },
                {
                    "abilityId": 7325,
                    "time": 1730,
                    "level": 2
                },
                {
                    "abilityId": 6112,
                    "time": 1836,
                    "level": 0
                },
                {
                    "abilityId": 7325,
                    "time": 1904,
                    "level": 3
                },
                {
                    "abilityId": 5137,
                    "time": 2054,
                    "level": 2
                }
            ],
            "isVictory": true,
            "networth": 7689,
            "neutral0Id": 326,
            "heroAverage": [],
            "steamAccount": {
                "id": 178339909,
                "steamId": 178339909,
                "profileUri": "https://steamcommunity.com/id/striplexgod/",
                "realName": "",
                "countryCode": "",
                "stateCode": "",
                "name": "StripleX",
                "avatar": "8a/8aed0f4f4a24bec02f7cc61586e46a860d811925_full.jpg",
                "isAnonymous": true,
                "isStratzAnonymous": false
            }
        },
        {
            "matchId": 5249594572,
            "playerSlot": 132,
            "heroId": 39,
            "steamId": 1006909721,
            "isRadiant": false,
            "numKills": 7,
            "numDeaths": 2,
            "numAssists": 15,
            "leaverStatus": 0,
            "numLastHits": 190,
            "numDenies": 13,
            "goldPerMinute": 520,
            "experiencePerMinute": 699,
            "level": 21,
            "gold": 2239,
            "goldSpent": 14125,
            "heroDamage": 22051,
            "towerDamage": 4204,
            "partyId": 1,
            "lane": 2,
            "role": 0,
            "item0Id": 98,
            "item1Id": 100,
            "item2Id": 63,
            "item3Id": 77,
            "item4Id": 24,
            "item5Id": 77,
            "backpack0Id": 57,
            "heroHealing": 0,
            "abilities": [
                {
                    "abilityId": 5173,
                    "time": 299,
                    "level": 0
                },
                {
                    "abilityId": 5174,
                    "time": 349,
                    "level": 0
                },
                {
                    "abilityId": 5173,
                    "time": 399,
                    "level": 1
                },
                {
                    "abilityId": 5175,
                    "time": 460,
                    "level": 0
                },
                {
                    "abilityId": 5175,
                    "time": 543,
                    "level": 1
                },
                {
                    "abilityId": 5176,
                    "time": 614,
                    "level": 0
                },
                {
                    "abilityId": 5175,
                    "time": 737,
                    "level": 2
                },
                {
                    "abilityId": 5175,
                    "time": 870,
                    "level": 3
                },
                {
                    "abilityId": 5173,
                    "time": 941,
                    "level": 2
                },
                {
                    "abilityId": 5173,
                    "time": 1018,
                    "level": 3
                },
                {
                    "abilityId": 5174,
                    "time": 1127,
                    "level": 1
                },
                {
                    "abilityId": 6009,
                    "time": 1264,
                    "level": 0
                },
                {
                    "abilityId": 5174,
                    "time": 1290,
                    "level": 2
                },
                {
                    "abilityId": 5174,
                    "time": 1376,
                    "level": 3
                },
                {
                    "abilityId": 6210,
                    "time": 1408,
                    "level": 0
                },
                {
                    "abilityId": 5176,
                    "time": 1492,
                    "level": 1
                },
                {
                    "abilityId": 5176,
                    "time": 1681,
                    "level": 2
                },
                {
                    "abilityId": 6407,
                    "time": 1869,
                    "level": 0
                }
            ],
            "isVictory": true,
            "networth": 14334,
            "neutral0Id": 336,
            "heroAverage": [],
            "steamAccount": {
                "id": 1006909721,
                "steamId": 1006909721,
                "profileUri": "https://steamcommunity.com/profiles/76561198967175449/",
                "realName": "",
                "countryCode": "",
                "stateCode": "",
                "name": "-nCoV",
                "avatar": "09/0980dea00355a06f6fc96e1d585d81ec7e212900_full.jpg",
                "isAnonymous": true,
                "isStratzAnonymous": false
            }
        }
    ]
}